CSDA1040 Assignment 2: Hotel Sentiment Analysis
…
bigrams_filtered <- bigrams_separated %>%
  filter(!word1 %in% stop_words$word) %>%
  filter(!word2 %in% stop_words$word)

bigram_counts <- bigrams_filtered %>% 
  count(word1, word2, sort = TRUE)

bigrams_united <- bigrams_filtered %>%
  unite(bigram, word1, word2, sep = " ")

bigrams_united %>%
  count(bigram, sort = TRUE)

## # A tibble: 50,623 x 2
##    bigram               n
##    <chr>            <int>
##  1 rainbow tower     1110
##  2 hawaiian village   998
##  3 hilton hawaiian    959
##  4 ocean view         804
##  5 diamond head       630
##  6 waikiki beach      608
##  7 tapa tower         535
##  8 ali'i tower        501
##  9 front desk         494
## 10 resort fee         446
## # ... with 50,613 more rows
…
trigrams_filtered <- trigrams_separated %>%
  filter(!word1 %in% stop_words$word) %>%
  filter(!word2 %in% stop_words$word) %>%
  filter(!word3 %in% stop_words$word)

trigram_counts <- trigrams_filtered %>% 
  count(word1, word2, word3, sort = TRUE)

trigrams_united <- trigrams_filtered %>%
  unite(trigram, word1, word2, word3, sep = " ")

trigrams_united %>%
  count(trigram, sort = TRUE)

## # A tibble: 25,108 x 2
##    trigram                      n
##    <chr>                    <int>
##  1 hilton hawaiian village    901
##  2 friday night fireworks     187
##  3 diamond head tower         186
##  4 partial ocean view         134
##  5 ala moana shopping         113
##  6 hawaiian village waikiki    66
##  7 moana shopping centre       58
##  8 front desk staff            55
##  9 day resort fee              48
## 10 village waikiki beach       48
## # ... with 25,098 more rows
…
Using bigrams to provide context in sentiment analysis

bigrams_separated %>%
  filter(word1 == "not") %>%
  count(word1, word2, sort = TRUE)

## # A tibble: 926 x 3
##    word1 word2     n
##    <chr> <chr> <int>
##  1 not   a       289
##  2 not   the     218
##  3 not   have    179
##  4 not   sure    130
##  5 not   to      129
##  6 not   be      117
##  7 not   stay     90
##  8 not   as       85
##  9 not   even     84
## 10 not   worth    84
## # ... with 916 more rows

AFINN <- get_sentiments("afinn")%>%
  rename(score = value)

not_words <- bigrams_separated %>%
  filter(word1 == "not") %>%
  inner_join(AFINN, by = c(word2 = "word")) %>%
  count(word2, score, sort = TRUE) %>%
  ungroup()

not_words

## # A tibble: 150 x 3
##    word2     score     n
##    <chr>     <dbl> <int>
##  1 worth         2    84
##  2 recommend     2    54
##  3 like          2    51
##  4 great         3    47
##  5 good          3    42
##  6 want          1    33
##  7 bad          -3    25
##  8 happy         3    23
##  9 disturb      -2    19
## 10 impressed     3    19
## # ... with 140 more rows
…
sentiment_messages <- tidy_reviews %>%
  inner_join(get_sentiments("afinn"), by = "word") %>%
  rename(score = value)%>%
  group_by(ID) %>%
  summarize(sentiment = mean(score),
            words = n()) %>%
  ungroup() %>%
  filter(words >= 5)

sentiment_messages %>%
  arrange(desc(sentiment))

## # A tibble: 2,965 x 3
##       ID sentiment words
##    <int>     <dbl> <int>
##  1  2363      4        7
##  2  2578      3.8      5
##  3  3629      3.8      5
##  4  1039      3.71     7
##  5  1332      3.71     7
##  6  4909      3.67     6
##  7     7      3.6      5
##  8  3312      3.6      5
##  9  4274      3.6      5
## 10  4806      3.6      5
## # ... with 2,955 more rows

review4[which(review4$ID==2363), ]$review_body[1]

## [1] "Wow wow wow what a place we had a fantastic time and amazing views from our room. The Hilton is just fantastic This Hotel is amazing for everyone from kids to adults it has everything you will ever need."

sentiment_messages %>%
  arrange(sentiment)

## # A tibble: 2,965 x 3
##       ID sentiment words
##    <int>     <dbl> <int>
##  1  3748     -3.6      5
##  2   317     -2.8      5
##  3  2766     -2.29     7
##  4    24     -2.2      5
##  5   692     -2.17     6
##  6   368     -2.12     8
##  7   791     -2        7
##  8  1362     -2       13
##  9  3900     -2        5
## 10   971     -1.83     6
## # ... with 2,955 more rows
…
